"age","bp","sg","al","su","rbc","pc","pcc","ba","bgr","bu","sc","sod","pot","hemo","pcv","wbcc","rbcc","htn","dm","cad","appet","pe","ane","class"
48.0,70.0,1.0,4.0,0.0,1.0,0.0,1.0,0.0,117.0,56.0,3.0,111.0,2.0,11.0,32.0,6700.0,3.0,1.0,0.0,0.0,0.0,1.0,1.0,1.0
53.0,90.0,1.0,2.0,0.0,0.0,0.0,1.0,0.0,70.0,107.0,7.0,114.0,3.0,9.0,29.0,12100.0,3.0,1.0,1.0,0.0,0.0,0.0,1.0,1.0
63.0,70.0,1.0,3.0,0.0,0.0,0.0,1.0,0.0,380.0,60.0,2.0,131.0,4.0,10.0,32.0,4500.0,3.0,1.0,1.0,0.0,0.0,1.0,0.0,1.0
68.0,80.0,1.0,3.0,2.0,1.0,0.0,1.0,1.0,157.0,90.0,4.0,130.0,6.0,5.0,16.0,11000.0,2.0,1.0,1.0,1.0,0.0,1.0,0.0,1.0
61.0,80.0,1.0,2.0,0.0,0.0,0.0,0.0,0.0,173.0,148.0,3.0,135.0,5.0,7.0,24.0,9200.0,3.0,1.0,1.0,1.0,0.0,1.0,1.0,1.0
48.0,80.0,1.0,4.0,0.0,1.0,0.0,0.0,0.0,95.0,163.0,7.0,136.0,3.0,9.0,32.0,6900.0,3.0,1.0,0.0,0.0,1.0,0.0,1.0,1.0
69.0,70.0,1.0,3.0,4.0,1.0,0.0,0.0,0.0,264.0,87.0,2.0,130.0,4.0,12.0,37.0,9600.0,4.0,1.0,1.0,1.0,1.0,1.0,0.0,1.0
73.0,70.0,1.0,0.0,0.0,1.0,1.0,0.0,0.0,70.0,32.0,0.0,125.0,4.0,10.0,29.0,18900.0,3.0,1.0,1.0,0.0,1.0,1.0,0.0,1.0
73.0,80.0,1.0,2.0,0.0,0.0,0.0,0.0,0.0,253.0,142.0,4.0,138.0,5.0,10.0,33.0,7200.0,4.0,1.0,1.0,1.0,1.0,0.0,0.0,1.0
46.0,60.0,1.0,1.0,0.0,1.0,1.0,0.0,0.0,163.0,92.0,3.0,141.0,4.0,9.0,28.0,14600.0,3.0,1.0,1.0,0.0,1.0,0.0,0.0,1.0
56.0,90.0,1.0,2.0,0.0,0.0,0.0,0.0,0.0,129.0,107.0,6.0,131.0,4.0,9.0,29.0,6400.0,3.0,1.0,0.0,0.0,1.0,0.0,0.0,1.0
48.0,80.0,1.0,4.0,0.0,0.0,0.0,0.0,1.0,133.0,139.0,8.0,132.0,5.0,10.0,36.0,6200.0,4.0,0.0,1.0,0.0,1.0,1.0,0.0,1.0
59.0,70.0,1.0,3.0,0.0,1.0,0.0,0.0,0.0,76.0,186.0,15.0,135.0,7.0,7.0,22.0,3800.0,2.0,1.0,0.0,0.0,0.0,1.0,1.0,1.0
63.0,100.0,1.0,2.0,2.0,1.0,1.0,0.0,1.0,280.0,35.0,3.0,143.0,3.0,13.0,40.0,9800.0,4.0,1.0,0.0,1.0,1.0,0.0,0.0,1.0
56.0,70.0,1.0,4.0,1.0,0.0,1.0,0.0,0.0,210.0,26.0,1.0,136.0,3.0,16.0,52.0,12500.0,5.0,0.0,0.0,0.0,1.0,0.0,0.0,1.0
71.0,70.0,1.0,3.0,0.0,1.0,0.0,1.0,1.0,219.0,82.0,3.0,133.0,4.0,10.0,33.0,5600.0,3.0,1.0,1.0,1.0,1.0,0.0,0.0,1.0
73.0,100.0,1.0,3.0,2.0,0.0,0.0,1.0,0.0,295.0,90.0,5.0,140.0,2.0,9.0,30.0,7000.0,3.0,1.0,1.0,1.0,0.0,0.0,0.0,1.0
71.0,60.0,1.0,4.0,0.0,1.0,1.0,0.0,0.0,118.0,125.0,5.0,136.0,4.0,11.0,35.0,15200.0,4.0,1.0,1.0,0.0,0.0,1.0,0.0,1.0
52.0,90.0,1.0,4.0,3.0,1.0,0.0,0.0,0.0,224.0,166.0,5.0,133.0,47.0,8.0,23.0,5000.0,2.0,1.0,1.0,0.0,1.0,0.0,1.0,1.0
50.0,90.0,1.0,2.0,0.0,1.0,0.0,1.0,1.0,128.0,208.0,9.0,134.0,4.0,8.0,22.0,16300.0,2.0,0.0,0.0,0.0,0.0,1.0,1.0,1.0
70.0,100.0,1.0,4.0,0.0,1.0,1.0,0.0,0.0,118.0,125.0,5.0,136.0,4.0,12.0,37.0,8400.0,8.0,1.0,0.0,0.0,1.0,0.0,0.0,1.0
60.0,90.0,1.0,2.0,0.0,0.0,1.0,0.0,0.0,105.0,53.0,2.0,136.0,5.0,11.0,33.0,10500.0,4.0,0.0,0.0,0.0,1.0,0.0,0.0,1.0
60.0,60.0,1.0,3.0,1.0,1.0,0.0,1.0,0.0,288.0,36.0,1.0,130.0,3.0,7.0,25.0,15200.0,3.0,1.0,0.0,0.0,0.0,0.0,1.0,1.0
55.0,90.0,1.0,2.0,1.0,0.0,0.0,0.0,0.0,273.0,235.0,14.0,132.0,3.0,8.0,22.0,14600.0,2.0,1.0,1.0,0.0,0.0,1.0,1.0,1.0
62.0,70.0,1.0,3.0,0.0,1.0,0.0,0.0,0.0,122.0,42.0,1.0,136.0,4.0,12.0,39.0,7900.0,3.0,1.0,1.0,0.0,1.0,0.0,0.0,1.0
59.0,80.0,1.0,1.0,0.0,0.0,1.0,0.0,0.0,303.0,35.0,1.0,122.0,3.0,10.0,35.0,10900.0,4.0,0.0,1.0,0.0,0.0,0.0,0.0,1.0
83.0,70.0,1.0,3.0,0.0,1.0,1.0,0.0,0.0,102.0,60.0,2.0,115.0,5.0,8.0,26.0,12800.0,3.0,1.0,0.0,0.0,0.0,0.0,1.0,1.0
21.0,90.0,1.0,4.0,0.0,1.0,0.0,1.0,1.0,107.0,40.0,1.0,125.0,3.0,8.0,23.0,12400.0,3.0,0.0,0.0,0.0,1.0,0.0,1.0,1.0
45.0,70.0,1.0,2.0,0.0,1.0,0.0,1.0,0.0,117.0,52.0,2.0,136.0,3.0,10.0,30.0,19100.0,3.0,0.0,0.0,0.0,1.0,0.0,0.0,1.0
64.0,60.0,1.0,4.0,1.0,0.0,0.0,0.0,1.0,239.0,58.0,4.0,137.0,5.0,9.0,29.0,7500.0,3.0,1.0,1.0,0.0,0.0,1.0,0.0,1.0
6.0,60.0,1.0,4.0,0.0,0.0,0.0,0.0,1.0,94.0,67.0,1.0,135.0,4.0,9.0,30.0,16700.0,4.0,0.0,0.0,0.0,0.0,0.0,0.0,1.0
49.0,100.0,1.0,3.0,0.0,0.0,0.0,0.0,0.0,129.0,158.0,11.0,122.0,3.0,8.0,24.0,9600.0,3.0,1.0,1.0,0.0,0.0,1.0,1.0,1.0
59.0,100.0,1.0,4.0,2.0,1.0,1.0,0.0,0.0,252.0,40.0,3.0,137.0,4.0,11.0,30.0,26400.0,3.0,1.0,1.0,0.0,0.0,1.0,0.0,1.0
59.0,100.0,1.0,4.0,2.0,1.0,1.0,0.0,0.0,255.0,132.0,12.0,135.0,5.0,7.0,20.0,9800.0,3.0,1.0,1.0,1.0,1.0,0.0,1.0,1.0
40.0,70.0,1.0,3.0,4.0,1.0,1.0,0.0,0.0,253.0,150.0,11.0,132.0,5.0,10.0,31.0,8800.0,3.0,1.0,1.0,0.0,0.0,1.0,0.0,1.0
55.0,80.0,1.0,3.0,1.0,1.0,0.0,1.0,1.0,214.0,73.0,3.0,137.0,4.0,10.0,34.0,7400.0,3.0,1.0,1.0,0.0,1.0,1.0,0.0,1.0
60.0,90.0,1.0,3.0,5.0,0.0,1.0,0.0,1.0,490.0,95.0,2.0,131.0,3.0,11.0,35.0,12000.0,4.0,1.0,1.0,0.0,1.0,0.0,0.0,1.0
64.0,100.0,1.0,4.0,2.0,0.0,0.0,0.0,1.0,163.0,54.0,7.0,140.0,4.0,7.0,26.0,7500.0,3.0,1.0,1.0,0.0,1.0,1.0,0.0,1.0
59.0,50.0,1.0,3.0,0.0,1.0,0.0,0.0,0.0,241.0,191.0,12.0,114.0,2.0,9.0,31.0,15700.0,3.0,0.0,1.0,0.0,1.0,1.0,0.0,1.0
69.0,70.0,1.0,4.0,3.0,1.0,0.0,1.0,1.0,214.0,96.0,6.0,120.0,3.0,9.0,28.0,11500.0,3.0,1.0,1.0,1.0,1.0,1.0,1.0,1.0
48.0,110.0,1.0,3.0,0.0,0.0,1.0,1.0,0.0,106.0,215.0,15.0,120.0,5.0,8.0,26.0,5000.0,2.0,1.0,0.0,1.0,1.0,0.0,1.0,1.0
59.0,70.0,1.0,1.0,3.0,0.0,0.0,0.0,0.0,424.0,55.0,1.0,138.0,4.0,12.0,37.0,10200.0,4.0,1.0,1.0,1.0,1.0,0.0,0.0,1.0
56.0,90.0,1.0,4.0,1.0,1.0,0.0,1.0,0.0,176.0,309.0,13.0,124.0,6.0,3.0,9.0,5400.0,2.0,1.0,1.0,0.0,0.0,1.0,1.0,1.0
40.0,80.0,1.0,0.0,0.0,1.0,1.0,0.0,0.0,140.0,10.0,1.0,135.0,5.0,15.0,48.0,10400.0,4.0,0.0,0.0,0.0,1.0,0.0,0.0,0.0
23.0,80.0,1.0,0.0,0.0,1.0,1.0,0.0,0.0,70.0,36.0,1.0,150.0,4.0,17.0,52.0,9800.0,5.0,0.0,0.0,0.0,1.0,0.0,0.0,0.0
45.0,80.0,1.0,0.0,0.0,1.0,1.0,0.0,0.0,82.0,49.0,0.0,147.0,4.0,15.0,46.0,9100.0,4.0,0.0,0.0,0.0,1.0,0.0,0.0,0.0
57.0,80.0,1.0,0.0,0.0,1.0,1.0,0.0,0.0,119.0,17.0,1.0,135.0,4.0,15.0,42.0,6200.0,6.0,0.0,0.0,0.0,1.0,0.0,0.0,0.0
51.0,60.0,1.0,0.0,0.0,1.0,1.0,0.0,0.0,99.0,38.0,0.0,135.0,3.0,13.0,49.0,8300.0,5.0,0.0,0.0,0.0,1.0,0.0,0.0,0.0
34.0,80.0,1.0,0.0,0.0,1.0,1.0,0.0,0.0,121.0,27.0,1.0,144.0,3.0,13.0,52.0,9200.0,6.0,0.0,0.0,0.0,1.0,0.0,0.0,0.0
60.0,80.0,1.0,0.0,0.0,1.0,1.0,0.0,0.0,131.0,10.0,0.0,146.0,5.0,14.0,41.0,10700.0,5.0,0.0,0.0,0.0,1.0,0.0,0.0,0.0
38.0,60.0,1.0,0.0,0.0,1.0,1.0,0.0,0.0,91.0,36.0,0.0,135.0,3.0,14.0,46.0,9100.0,5.0,0.0,0.0,0.0,1.0,0.0,0.0,0.0
42.0,80.0,1.0,0.0,0.0,1.0,1.0,0.0,0.0,98.0,20.0,0.0,140.0,3.0,13.0,44.0,8400.0,5.0,0.0,0.0,0.0,1.0,0.0,0.0,0.0
35.0,80.0,1.0,0.0,0.0,1.0,1.0,0.0,0.0,104.0,31.0,1.0,135.0,5.0,16.0,45.0,4300.0,5.0,0.0,0.0,0.0,1.0,0.0,0.0,0.0
30.0,80.0,1.0,0.0,0.0,1.0,1.0,0.0,0.0,131.0,38.0,1.0,147.0,3.0,14.0,45.0,9400.0,5.0,0.0,0.0,0.0,1.0,0.0,0.0,0.0
49.0,80.0,1.0,0.0,0.0,1.0,1.0,0.0,0.0,122.0,32.0,1.0,139.0,3.0,17.0,41.0,5600.0,4.0,0.0,0.0,0.0,1.0,0.0,0.0,0.0
55.0,80.0,1.0,0.0,0.0,1.0,1.0,0.0,0.0,118.0,18.0,0.0,135.0,3.0,15.0,43.0,7200.0,5.0,0.0,0.0,0.0,1.0,0.0,0.0,0.0
45.0,80.0,1.0,0.0,0.0,1.0,1.0,0.0,0.0,117.0,46.0,1.0,137.0,5.0,16.0,45.0,8600.0,5.0,0.0,0.0,0.0,1.0,0.0,0.0,0.0
42.0,80.0,1.0,0.0,0.0,1.0,1.0,0.0,0.0,132.0,24.0,0.0,140.0,4.0,14.0,50.0,5000.0,4.0,0.0,0.0,0.0,1.0,0.0,0.0,0.0
50.0,80.0,1.0,0.0,0.0,1.0,1.0,0.0,0.0,97.0,40.0,0.0,150.0,4.0,14.0,48.0,10500.0,5.0,0.0,0.0,0.0,1.0,0.0,0.0,0.0
55.0,80.0,1.0,0.0,0.0,1.0,1.0,0.0,0.0,133.0,17.0,1.0,135.0,4.0,13.0,41.0,6800.0,5.0,0.0,0.0,0.0,1.0,0.0,0.0,0.0
48.0,80.0,1.0,0.0,0.0,1.0,1.0,0.0,0.0,122.0,33.0,0.0,146.0,3.0,13.0,48.0,9500.0,4.0,0.0,0.0,0.0,1.0,0.0,0.0,0.0
25.0,80.0,1.0,0.0,0.0,1.0,1.0,0.0,0.0,121.0,19.0,1.0,142.0,4.0,15.0,48.0,6900.0,5.0,0.0,0.0,0.0,1.0,0.0,0.0,0.0
23.0,80.0,1.0,0.0,0.0,1.0,1.0,0.0,0.0,111.0,34.0,1.0,145.0,4.0,14.0,41.0,7200.0,5.0,0.0,0.0,0.0,1.0,0.0,0.0,0.0
30.0,80.0,1.0,0.0,0.0,1.0,1.0,0.0,0.0,96.0,25.0,0.0,144.0,4.0,13.0,42.0,9000.0,4.0,0.0,0.0,0.0,1.0,0.0,0.0,0.0
56.0,80.0,1.0,0.0,0.0,1.0,1.0,0.0,0.0,139.0,15.0,1.0,135.0,5.0,14.0,42.0,5600.0,5.0,0.0,0.0,0.0,1.0,0.0,0.0,0.0
52.0,80.0,1.0,0.0,0.0,1.0,1.0,0.0,0.0,125.0,22.0,1.0,139.0,4.0,16.0,43.0,4700.0,4.0,0.0,0.0,0.0,1.0,0.0,0.0,0.0
46.0,60.0,1.0,0.0,0.0,1.0,1.0,0.0,0.0,123.0,46.0,1.0,135.0,5.0,15.0,50.0,6300.0,4.0,0.0,0.0,0.0,1.0,0.0,0.0,0.0
48.0,60.0,1.0,0.0,0.0,1.0,1.0,0.0,0.0,112.0,44.0,1.0,142.0,4.0,14.0,44.0,9400.0,6.0,0.0,0.0,0.0,1.0,0.0,0.0,0.0
24.0,70.0,1.0,0.0,0.0,1.0,1.0,0.0,0.0,140.0,23.0,0.0,140.0,4.0,16.0,48.0,5800.0,5.0,0.0,0.0,0.0,1.0,0.0,0.0,0.0
55.0,80.0,1.0,0.0,0.0,1.0,1.0,0.0,0.0,130.0,50.0,1.0,147.0,5.0,15.0,41.0,9100.0,6.0,0.0,0.0,0.0,1.0,0.0,0.0,0.0
20.0,70.0,1.0,0.0,0.0,1.0,1.0,0.0,0.0,123.0,44.0,1.0,135.0,3.0,14.0,44.0,5500.0,4.0,0.0,0.0,0.0,1.0,0.0,0.0,0.0
33.0,80.0,1.0,0.0,0.0,1.0,1.0,0.0,0.0,100.0,37.0,1.0,142.0,4.0,16.0,52.0,6700.0,6.0,0.0,0.0,0.0,1.0,0.0,0.0,0.0
66.0,70.0,1.0,0.0,0.0,1.0,1.0,0.0,0.0,94.0,19.0,0.0,135.0,3.0,16.0,41.0,5300.0,5.0,0.0,0.0,0.0,1.0,0.0,0.0,0.0
71.0,70.0,1.0,0.0,0.0,1.0,1.0,0.0,0.0,81.0,18.0,0.0,145.0,5.0,14.0,44.0,9800.0,6.0,0.0,0.0,0.0,1.0,0.0,0.0,0.0
42.0,70.0,1.0,0.0,0.0,1.0,1.0,0.0,0.0,93.0,32.0,0.0,143.0,4.0,16.0,43.0,7100.0,5.0,0.0,0.0,0.0,1.0,0.0,0.0,0.0
47.0,80.0,1.0,0.0,0.0,1.0,1.0,0.0,0.0,124.0,44.0,1.0,140.0,4.0,14.0,41.0,7000.0,5.0,0.0,0.0,0.0,1.0,0.0,0.0,0.0
30.0,80.0,1.0,0.0,0.0,1.0,1.0,0.0,0.0,89.0,42.0,0.0,139.0,5.0,16.0,52.0,10200.0,5.0,0.0,0.0,0.0,1.0,0.0,0.0,0.0
41.0,70.0,1.0,0.0,0.0,1.0,1.0,0.0,0.0,125.0,38.0,0.0,140.0,5.0,16.0,41.0,6300.0,5.0,0.0,0.0,0.0,1.0,0.0,0.0,0.0
34.0,60.0,1.0,0.0,0.0,1.0,1.0,0.0,0.0,91.0,49.0,1.0,135.0,4.0,13.0,48.0,8600.0,4.0,0.0,0.0,0.0,1.0,0.0,0.0,0.0
73.0,60.0,1.0,0.0,0.0,1.0,1.0,0.0,0.0,127.0,48.0,0.0,150.0,3.0,15.0,52.0,11000.0,4.0,0.0,0.0,0.0,1.0,0.0,0.0,0.0
44.0,60.0,1.0,0.0,0.0,1.0,1.0,0.0,0.0,96.0,33.0,0.0,147.0,4.0,16.0,41.0,7200.0,5.0,0.0,0.0,0.0,1.0,0.0,0.0,0.0
33.0,80.0,1.0,0.0,0.0,1.0,1.0,0.0,0.0,128.0,38.0,0.0,135.0,3.0,13.0,45.0,6200.0,4.0,0.0,0.0,0.0,1.0,0.0,0.0,0.0
41.0,80.0,1.0,0.0,0.0,1.0,1.0,0.0,0.0,122.0,25.0,0.0,138.0,5.0,17.0,41.0,9100.0,5.0,0.0,0.0,0.0,1.0,0.0,0.0,0.0
52.0,80.0,1.0,0.0,0.0,1.0,1.0,0.0,0.0,128.0,30.0,1.0,140.0,4.0,15.0,52.0,4300.0,5.0,0.0,0.0,0.0,1.0,0.0,0.0,0.0
47.0,60.0,1.0,0.0,0.0,1.0,1.0,0.0,0.0,137.0,17.0,0.0,150.0,3.0,13.0,44.0,7900.0,4.0,0.0,0.0,0.0,1.0,0.0,0.0,0.0
43.0,80.0,1.0,0.0,0.0,1.0,1.0,0.0,0.0,81.0,46.0,0.0,135.0,4.0,13.0,48.0,6900.0,4.0,0.0,0.0,0.0,1.0,0.0,0.0,0.0
46.0,60.0,1.0,0.0,0.0,1.0,1.0,0.0,0.0,102.0,27.0,0.0,142.0,4.0,13.0,44.0,11000.0,5.0,0.0,0.0,0.0,1.0,0.0,0.0,0.0
56.0,60.0,1.0,0.0,0.0,1.0,1.0,0.0,0.0,132.0,18.0,1.0,147.0,4.0,13.0,45.0,7500.0,5.0,0.0,0.0,0.0,1.0,0.0,0.0,0.0
55.0,80.0,1.0,0.0,0.0,1.0,1.0,0.0,0.0,104.0,28.0,0.0,142.0,4.0,17.0,52.0,8200.0,4.0,0.0,0.0,0.0,1.0,0.0,0.0,0.0
39.0,70.0,1.0,0.0,0.0,1.0,1.0,0.0,0.0,131.0,46.0,0.0,145.0,5.0,15.0,41.0,9400.0,4.0,0.0,0.0,0.0,1.0,0.0,0.0,0.0
58.0,70.0,1.0,0.0,0.0,1.0,1.0,0.0,0.0,102.0,48.0,1.0,139.0,4.0,15.0,40.0,8100.0,4.0,0.0,0.0,0.0,1.0,0.0,0.0,0.0
61.0,70.0,1.0,0.0,0.0,1.0,1.0,0.0,0.0,120.0,29.0,0.0,137.0,3.0,17.0,52.0,7000.0,5.0,0.0,0.0,0.0,1.0,0.0,0.0,0.0
57.0,60.0,1.0,0.0,0.0,1.0,1.0,0.0,0.0,105.0,49.0,1.0,150.0,4.0,15.0,44.0,10400.0,6.0,0.0,0.0,0.0,1.0,0.0,0.0,0.0
65.0,60.0,1.0,0.0,0.0,1.0,1.0,0.0,0.0,109.0,39.0,1.0,144.0,3.0,13.0,48.0,9600.0,4.0,0.0,0.0,0.0,1.0,0.0,0.0,0.0
43.0,80.0,1.0,0.0,0.0,1.0,1.0,0.0,0.0,130.0,30.0,1.0,143.0,5.0,15.0,45.0,7800.0,4.0,0.0,0.0,0.0,1.0,0.0,0.0,0.0
58.0,80.0,1.0,0.0,0.0,1.0,1.0,0.0,0.0,100.0,50.0,1.0,140.0,3.0,14.0,50.0,6700.0,6.0,0.0,0.0,0.0,1.0,0.0,0.0,0.0
47.0,60.0,1.0,0.0,0.0,1.0,1.0,0.0,0.0,109.0,25.0,1.0,141.0,4.0,15.0,41.0,8300.0,5.0,0.0,0.0,0.0,1.0,0.0,0.0,0.0
30.0,60.0,1.0,0.0,0.0,1.0,1.0,0.0,0.0,120.0,31.0,0.0,150.0,4.0,13.0,44.0,10700.0,5.0,0.0,0.0,0.0,1.0,0.0,0.0,0.0
33.0,60.0,1.0,0.0,0.0,1.0,1.0,0.0,0.0,80.0,25.0,0.0,146.0,3.0,14.0,48.0,7800.0,5.0,0.0,0.0,0.0,1.0,0.0,0.0,0.0
59.0,70.0,1.0,0.0,0.0,1.0,1.0,0.0,0.0,130.0,39.0,0.0,147.0,4.0,13.0,46.0,6700.0,4.0,0.0,0.0,0.0,1.0,0.0,0.0,0.0
23.0,80.0,1.0,0.0,0.0,1.0,1.0,0.0,0.0,99.0,46.0,1.0,142.0,4.0,17.0,46.0,4300.0,5.0,0.0,0.0,0.0,1.0,0.0,0.0,0.0
60.0,60.0,1.0,0.0,0.0,1.0,1.0,0.0,0.0,134.0,45.0,0.0,139.0,4.0,14.0,48.0,10700.0,5.0,0.0,0.0,0.0,1.0,0.0,0.0,0.0
44.0,70.0,1.0,0.0,0.0,1.0,1.0,0.0,0.0,92.0,40.0,0.0,141.0,4.0,14.0,52.0,7500.0,6.0,0.0,0.0,0.0,1.0,0.0,0.0,0.0
62.0,80.0,1.0,0.0,0.0,1.0,1.0,0.0,0.0,132.0,34.0,0.0,147.0,3.0,17.0,44.0,4700.0,4.0,0.0,0.0,0.0,1.0,0.0,0.0,0.0
25.0,70.0,1.0,0.0,0.0,1.0,1.0,0.0,0.0,88.0,42.0,0.0,136.0,3.0,13.0,48.0,7000.0,4.0,0.0,0.0,0.0,1.0,0.0,0.0,0.0
32.0,70.0,1.0,0.0,0.0,1.0,1.0,0.0,0.0,100.0,29.0,1.0,142.0,4.0,14.0,43.0,6700.0,5.0,0.0,0.0,0.0,1.0,0.0,0.0,0.0
63.0,70.0,1.0,0.0,0.0,1.0,1.0,0.0,0.0,130.0,37.0,0.0,150.0,5.0,13.0,41.0,7300.0,4.0,0.0,0.0,0.0,1.0,0.0,0.0,0.0
44.0,60.0,1.0,0.0,0.0,1.0,1.0,0.0,0.0,95.0,46.0,0.0,138.0,4.0,15.0,50.0,7700.0,6.0,0.0,0.0,0.0,1.0,0.0,0.0,0.0
37.0,60.0,1.0,0.0,0.0,1.0,1.0,0.0,0.0,111.0,35.0,0.0,135.0,4.0,16.0,50.0,5500.0,5.0,0.0,0.0,0.0,1.0,0.0,0.0,0.0
64.0,60.0,1.0,0.0,0.0,1.0,1.0,0.0,0.0,106.0,27.0,0.0,150.0,3.0,14.0,42.0,8100.0,4.0,0.0,0.0,0.0,1.0,0.0,0.0,0.0
22.0,60.0,1.0,0.0,0.0,1.0,1.0,0.0,0.0,97.0,18.0,1.0,138.0,4.0,13.0,42.0,7900.0,6.0,0.0,0.0,0.0,1.0,0.0,0.0,0.0
43.0,60.0,1.0,0.0,0.0,1.0,1.0,0.0,0.0,108.0,25.0,1.0,144.0,5.0,17.0,43.0,7200.0,5.0,0.0,0.0,0.0,1.0,0.0,0.0,0.0
38.0,80.0,1.0,0.0,0.0,1.0,1.0,0.0,0.0,99.0,19.0,0.0,147.0,3.0,13.0,44.0,7300.0,6.0,0.0,0.0,0.0,1.0,0.0,0.0,0.0
29.0,80.0,1.0,0.0,0.0,1.0,1.0,0.0,0.0,83.0,49.0,0.0,139.0,3.0,17.0,40.0,9900.0,4.0,0.0,0.0,0.0,1.0,0.0,0.0,0.0
37.0,60.0,1.0,0.0,0.0,1.0,1.0,0.0,0.0,109.0,47.0,1.0,141.0,4.0,15.0,48.0,7000.0,5.0,0.0,0.0,0.0,1.0,0.0,0.0,0.0
39.0,60.0,1.0,0.0,0.0,1.0,1.0,0.0,0.0,86.0,37.0,0.0,150.0,5.0,13.0,51.0,5800.0,4.0,0.0,0.0,0.0,1.0,0.0,0.0,0.0
32.0,60.0,1.0,0.0,0.0,1.0,1.0,0.0,0.0,102.0,17.0,0.0,147.0,4.0,14.0,41.0,6800.0,5.0,0.0,0.0,0.0,1.0,0.0,0.0,0.0
23.0,60.0,1.0,0.0,0.0,1.0,1.0,0.0,0.0,95.0,24.0,0.0,145.0,5.0,15.0,52.0,6300.0,4.0,0.0,0.0,0.0,1.0,0.0,0.0,0.0
34.0,70.0,1.0,0.0,0.0,1.0,1.0,0.0,0.0,87.0,38.0,0.0,144.0,4.0,17.0,47.0,7400.0,6.0,0.0,0.0,0.0,1.0,0.0,0.0,0.0
66.0,70.0,1.0,0.0,0.0,1.0,1.0,0.0,0.0,107.0,16.0,1.0,140.0,3.0,13.0,42.0,11000.0,4.0,0.0,0.0,0.0,1.0,0.0,0.0,0.0
47.0,60.0,1.0,0.0,0.0,1.0,1.0,0.0,0.0,117.0,22.0,1.0,138.0,3.0,13.0,45.0,5200.0,5.0,0.0,0.0,0.0,1.0,0.0,0.0,0.0
74.0,60.0,1.0,0.0,0.0,1.0,1.0,0.0,0.0,88.0,50.0,0.0,147.0,3.0,17.0,53.0,6000.0,4.0,0.0,0.0,0.0,1.0,0.0,0.0,0.0
35.0,60.0,1.0,0.0,0.0,1.0,1.0,0.0,0.0,105.0,39.0,0.0,135.0,3.0,14.0,43.0,5800.0,6.0,0.0,0.0,0.0,1.0,0.0,0.0,0.0
29.0,80.0,1.0,0.0,0.0,1.0,1.0,0.0,0.0,70.0,16.0,0.0,138.0,3.0,13.0,54.0,5400.0,5.0,0.0,0.0,0.0,1.0,0.0,0.0,0.0
33.0,80.0,1.0,0.0,0.0,1.0,1.0,0.0,0.0,89.0,19.0,1.0,144.0,5.0,15.0,40.0,10300.0,4.0,0.0,0.0,0.0,1.0,0.0,0.0,0.0
73.0,80.0,1.0,0.0,0.0,1.0,1.0,0.0,0.0,118.0,44.0,0.0,137.0,3.0,14.0,45.0,9300.0,4.0,0.0,0.0,0.0,1.0,0.0,0.0,0.0
60.0,80.0,1.0,0.0,0.0,1.0,1.0,0.0,0.0,81.0,15.0,0.0,141.0,3.0,15.0,46.0,10500.0,5.0,0.0,0.0,0.0,1.0,0.0,0.0,0.0
68.0,60.0,1.0,0.0,0.0,1.0,1.0,0.0,0.0,125.0,41.0,1.0,139.0,3.0,17.0,50.0,6700.0,6.0,0.0,0.0,0.0,1.0,0.0,0.0,0.0
30.0,80.0,1.0,0.0,0.0,1.0,1.0,0.0,0.0,82.0,42.0,0.0,146.0,5.0,14.0,45.0,9400.0,5.0,0.0,0.0,0.0,1.0,0.0,0.0,0.0
75.0,70.0,1.0,0.0,0.0,1.0,1.0,0.0,0.0,107.0,48.0,0.0,144.0,3.0,13.0,46.0,10300.0,4.0,0.0,0.0,0.0,1.0,0.0,0.0,0.0
69.0,70.0,1.0,0.0,0.0,1.0,1.0,0.0,0.0,83.0,42.0,1.0,139.0,3.0,16.0,50.0,9300.0,5.0,0.0,0.0,0.0,1.0,0.0,0.0,0.0
28.0,60.0,1.0,0.0,0.0,1.0,1.0,0.0,0.0,79.0,50.0,0.0,145.0,5.0,17.0,51.0,6500.0,5.0,0.0,0.0,0.0,1.0,0.0,0.0,0.0
72.0,60.0,1.0,0.0,0.0,1.0,1.0,0.0,0.0,109.0,26.0,0.0,150.0,4.0,15.0,52.0,10500.0,5.0,0.0,0.0,0.0,1.0,0.0,0.0,0.0
61.0,70.0,1.0,0.0,0.0,1.0,1.0,0.0,0.0,133.0,38.0,1.0,142.0,3.0,13.0,47.0,9200.0,4.0,0.0,0.0,0.0,1.0,0.0,0.0,0.0
79.0,80.0,1.0,0.0,0.0,1.0,1.0,0.0,0.0,111.0,44.0,1.0,146.0,3.0,16.0,40.0,8000.0,6.0,0.0,0.0,0.0,1.0,0.0,0.0,0.0
70.0,80.0,1.0,0.0,0.0,1.0,1.0,0.0,0.0,74.0,41.0,0.0,143.0,4.0,15.0,48.0,9700.0,5.0,0.0,0.0,0.0,1.0,0.0,0.0,0.0
58.0,70.0,1.0,0.0,0.0,1.0,1.0,0.0,0.0,88.0,16.0,1.0,147.0,3.0,16.0,53.0,9100.0,5.0,0.0,0.0,0.0,1.0,0.0,0.0,0.0
64.0,70.0,1.0,0.0,0.0,1.0,1.0,0.0,0.0,97.0,27.0,0.0,145.0,4.0,13.0,49.0,6400.0,4.0,0.0,0.0,0.0,1.0,0.0,0.0,0.0
62.0,80.0,1.0,0.0,0.0,1.0,1.0,0.0,0.0,78.0,45.0,0.0,138.0,3.0,16.0,50.0,5400.0,5.0,0.0,0.0,0.0,1.0,0.0,0.0,0.0
59.0,60.0,1.0,0.0,0.0,1.0,1.0,0.0,0.0,113.0,23.0,1.0,139.0,3.0,15.0,54.0,6500.0,4.0,0.0,0.0,0.0,1.0,0.0,0.0,0.0
48.0,80.0,1.0,0.0,0.0,1.0,1.0,0.0,0.0,75.0,22.0,0.0,137.0,5.0,16.0,51.0,6000.0,6.0,0.0,0.0,0.0,1.0,0.0,0.0,0.0
80.0,80.0,1.0,0.0,0.0,1.0,1.0,0.0,0.0,119.0,46.0,0.0,141.0,4.0,13.0,49.0,5100.0,5.0,0.0,0.0,0.0,1.0,0.0,0.0,0.0
57.0,60.0,1.0,0.0,0.0,1.0,1.0,0.0,0.0,132.0,18.0,1.0,150.0,4.0,15.0,42.0,11000.0,4.0,0.0,0.0,0.0,1.0,0.0,0.0,0.0
63.0,70.0,1.0,0.0,0.0,1.0,1.0,0.0,0.0,113.0,25.0,0.0,146.0,4.0,16.0,52.0,8000.0,5.0,0.0,0.0,0.0,1.0,0.0,0.0,0.0
46.0,70.0,1.0,0.0,0.0,1.0,1.0,0.0,0.0,100.0,47.0,0.0,142.0,3.0,16.0,43.0,5700.0,6.0,0.0,0.0,0.0,1.0,0.0,0.0,0.0
15.0,80.0,1.0,0.0,0.0,1.0,1.0,0.0,0.0,93.0,17.0,0.0,136.0,3.0,16.0,50.0,6200.0,5.0,0.0,0.0,0.0,1.0,0.0,0.0,0.0
51.0,80.0,1.0,0.0,0.0,1.0,1.0,0.0,0.0,94.0,15.0,1.0,144.0,3.0,15.0,46.0,9500.0,6.0,0.0,0.0,0.0,1.0,0.0,0.0,0.0
41.0,80.0,1.0,0.0,0.0,1.0,1.0,0.0,0.0,112.0,48.0,0.0,140.0,5.0,17.0,52.0,7200.0,5.0,0.0,0.0,0.0,1.0,0.0,0.0,0.0
52.0,80.0,1.0,0.0,0.0,1.0,1.0,0.0,0.0,99.0,25.0,0.0,135.0,3.0,15.0,52.0,6300.0,5.0,0.0,0.0,0.0,1.0,0.0,0.0,0.0
36.0,80.0,1.0,0.0,0.0,1.0,1.0,0.0,0.0,85.0,16.0,1.0,142.0,4.0,15.0,44.0,5800.0,6.0,0.0,0.0,0.0,1.0,0.0,0.0,0.0
57.0,80.0,1.0,0.0,0.0,1.0,1.0,0.0,0.0,133.0,48.0,1.0,147.0,4.0,14.0,46.0,6600.0,5.0,0.0,0.0,0.0,1.0,0.0,0.0,0.0
43.0,60.0,1.0,0.0,0.0,1.0,1.0,0.0,0.0,117.0,45.0,0.0,141.0,4.0,13.0,54.0,7400.0,5.0,0.0,0.0,0.0,1.0,0.0,0.0,0.0
50.0,80.0,1.0,0.0,0.0,1.0,1.0,0.0,0.0,137.0,46.0,0.0,139.0,5.0,14.0,45.0,9500.0,4.0,0.0,0.0,0.0,1.0,0.0,0.0,0.0
55.0,80.0,1.0,0.0,0.0,1.0,1.0,0.0,0.0,140.0,49.0,0.0,150.0,4.0,15.0,47.0,6700.0,4.0,0.0,0.0,0.0,1.0,0.0,0.0,0.0
42.0,70.0,1.0,0.0,0.0,1.0,1.0,0.0,0.0,75.0,31.0,1.0,141.0,3.0,16.0,54.0,7800.0,6.0,0.0,0.0,0.0,1.0,0.0,0.0,0.0
12.0,80.0,1.0,0.0,0.0,1.0,1.0,0.0,0.0,100.0,26.0,0.0,137.0,4.0,15.0,49.0,6600.0,5.0,0.0,0.0,0.0,1.0,0.0,0.0,0.0
17.0,60.0,1.0,0.0,0.0,1.0,1.0,0.0,0.0,114.0,50.0,1.0,135.0,4.0,14.0,51.0,7200.0,5.0,0.0,0.0,0.0,1.0,0.0,0.0,0.0
58.0,80.0,1.0,0.0,0.0,1.0,1.0,0.0,0.0,131.0,18.0,1.0,141.0,3.0,15.0,53.0,6800.0,6.0,0.0,0.0,0.0,1.0,0.0,0.0,0.0
